{
  "RG More": 12.6,
  "SA Abbott": 11.4,
  "GS Sandhu": 10.75,
  "CJ Anderson": 9.95,
  "P Suyal": 9.63,
  "BE Hendricks": 9.56,
  "Karanveer Singh": 9.5,
  "M de Lange": 9.5,
  "Anureet Singh": 9.43,
  "HH Pandya": 9.36
}